{
  "defaultSeverity": "error",
  "extends": [
    "tslint:recommended",
    "tslint-react"
  ],
  "jsRules": {},
  "rules": {
    "max-file-line-count": [
      true,
      300
    ],
    "member-access": false,
    "arrow-parens": false,
    "class-name": true,
    "no-namespace": true,
    "jsx-boolean-value": false,
    "ordered-imports": false,
    "object-literal-sort-keys": false,
    "no-var-requires": true,
    "array-type": [
      true,
      "generic"
    ],
    "max-classes-per-file": [
      true,
      1
    ],
    "no-console": [
      true,
      "log"
    ],
    "indent": [
      true,
      "spaces",
      2
    ],
    "no-duplicate-variable": true,
    "no-eval": true,
    "no-internal-module": true,
    "no-trailing-whitespace": true,
    "no-unsafe-finally": true,
    "no-var-keyword": true,
    "semicolon": [
      true,
      "always"
    ],
    "one-line": [
      true,
      "check-open-brace",
      "check-whitespace"
    ],
    "quotemark": [
      true,
      "single"
    ],
    "triple-equals": [
      true,
      "allow-null-check"
    ],
    "typedef-whitespace": [
      true,
      {
        "call-signature": "nospace",
        "index-signature": "nospace",
        "parameter": "nospace",
        "property-declaration": "nospace",
        "variable-declaration": "nospace"
      }
    ],
    "variable-name": [
      true,
      "ban-keywords"
    ],
    "trailing-comma": false,
    "no-empty-interface": false,
    "interface-name": [
      true,
      "never-prefix"
    ]
  },
  "rulesDirectory": []
}
